{
    "$schema": "http://json-schema.org/schema",
    "$comment": "Default schema for firewall configuration",
    "$ref": "fw-default-schema",
    "properties": {
        "General": {
            "defaultThreshholds": {
                "minPacketLength": 1,
                "maxPacketLength": 5120,
                "minimumPacketValue": 0.01,
                "maximumPacketValue": 5120,
                "exclusiveMinimumPacketCount": 1,
                "exclusiveMaximumPacketCount": 10,
                "logDestination": "console:log",
                "dimsets": true,
                "recursiveTransmission": false,
                "shifted": false
            }
        },
        "Ports": {
            "portsList": [
                "sys/usb0",
                "sys/console0",
                "spmr/cu0",
                "spmr/cu1",
                "spmr/cu2",
                "eth/fa0",
                "eth/fa1",
                "eth/fa2",
                "eth/fa3",
                "sphr/web/cphr",
                "sphr/web/wphr"
            ],
            "portsDefaultStatus": {
                "Status": "down",
                "exceptionsAllowed": true,
                "portsUpByDefault": [
                    "sys/console0"
                ],
                "FirewallAsAService": true,
                "FirewallStartOnBoot": true
            }
        },
        "Rules": {
            "FWR_CountryFilter": true,
            "FWR_CountryFilterRules": [
                "IN",
                "PK"
            ],
            "FWR_LoadSavedConf": true,
            "FWR_AllowNonPrivilegedConfEdit": false,
            "FWR_AllowAsyncMode": true,
            "FWR_BinAllow": true,
            "FWR_ListRulesOnStartup": false,
            "FWR_BlackListOfPorts": [
                "22",
                "23",
                "2323",
                "2233"
            ],
            "AddRulesFromOtherSources": false,
            "Tags": false,
            "FWR_DefaultPolicy": "BlockAllIncoming",
            "FWR_ParseConfOnLoad": true,
            "FWR_ParseConfOnConfChange": true,
            "FWR_ParseConfOnEditorExit": true
        },
        "FirewallProtectedConfigStorage": {
            "enabled": false
        },
        "FirewallCacheConfig": {
            "CacheSize": "512",
            "Units": "kB",
            "UpThreshold": "7160",
            "DownThreshold": "6200"
        },
        "POSTAnalyzer": {
            "POSTAnalyzer_activationMethod": "onKeyPress",
            "POSTAnalyzer_activationKey": "cmd_f2",
            "POSTAnalyzer_activationKey_waitTime": "1000",
            "POSTAnalyzer_passwordProtection": false,
            "POSTAnalyzer_2faProtection_AllowDisabling2fa": false,
            "POSTAnalyzer_2faProtection": true,
            "POSTAnalyzer_2faProtection_AllowedDevices": {
                "device0": {
                    "FN": "Apple iPhone 11",
                    "skey": "P0-12-7561-OX-126982",
                    "akey": "2fa/device",
                    "key": "iphone11",
                    "type": "smartphone"
                },
                "device1": {
                    "FN": "MacBook Air",
                    "skey": "FV-FY-244-QJ1WK",
                    "akey": "2fa/device",
                    "key": "mba",
                    "type": "laptop"
                },
                "device2": {
                    "FN": "MacBook Pro",
                    "skey": "FV-FY-261-QJ1WK",
                    "akey": "2fa/device",
                    "key": "mbp",
                    "type": "laptop"
                }
            },
            "POSTAnalyzer_2faProtection_AuthenticationApps": {
                "app0": {
                    "name": "Google Authenticator",
                    "pkey": "java.com.google.android.apps.authenticator",
                    "registeredDevicesWithThisApp": [
                        "mba"
                    ]
                },
                "app1": {
                    "name": "LastPass Authenticator",
                    "pkey": "java.com.lastpass.authservices",
                    "registeredDevicesWithThisApp": [
                        "iphone11",
                        "mbp"
                    ]
                }
            },
            "Misc": {
                "usbPortActiveOnBoot": true,
                "usbPortDirMapping": true,
                "mapToDir": "/{$os}/mnt",
                "mapTypesAllowed": [
                    "lsusbn",
                    "msusbn",
                    "somap"
                ],
                "autoLoadedMap": "msusbn",
                "utfCompliant": true,
                "usbAutoSaveFiles": false,
                "usbAutoDiscoverAndApplyConfigFiles": false,
                "@mutable": true
            }
        }
    },
    "dependencies": {
        "php-newest":true,
        "appveyor":true
    }
}